[
	{	
	"name": "Как провести свадьбу", 
 	"slug": "wedding.html", 
 	"description": "Здесь собраны материалы о традициях и обрядах, оригинальные сценарии  и забавные конкурсы.", 
 	"sub": [
 			{
		 		"name": "Сценарии свадеб", 
		 		"slug": "wedding_scenarios.html", 
		 		"description": "Готовые сценарии свадьбы на любой вкус. Ваша свадьба должна стать незабываемой."
		 	}, 
		 	{
		 		"name": "Свадебные конкурсы", 
		 		"slug": "wedding_contests.html", 
		 		"description": "Все для того, чтобы повеселить гостей и испытать новобрачных"
		 	}, 
		 	{	
		 		"name": "Традиции и обряды", 
		 		"slug": "wedding_traditions.html", "description": 
		 		"Свадебные таинства наших предков  и современные свадебные обычаи."
		 	}, 
		 	{
		 		"name": "Свадьбы народов мира", 
		 		"slug": "wedding_around_the_world.html", 
		 		"description": "Узнайте, как празднуют свадьбу в разных уголках мира."
		 	}, 
		 	{
		 		"name": "Идеи для вашей свадьбы", 
		 		"slug": "wedding_ideas.html", 
		 		"description": "Оригинальная,  экстремальная или классическая — какой Вы видите вашу свадьбу?"
		 	} 
 	]
 }, 
 {"name": "Девичник", "slug": "devichnik.html", "description": "Стоп! Мужчинам вход строго запрещён. Это только для девушек - территория девичника.", "sub": [
 {"name": "Сценарии девичника", "slug": "devichnik_scenario.html", "description": "Пусть  ваши подружки запомнили этот день надолго!"}, 
 {"name": "Между нами девочками", "slug": "hen-party.html", "description": "Истории о секретах  девичника и не только…"}, 
 {"name": "Конкурсы для девичника", "slug": "devichnik_contests.html", "description": "Кто на свете всех хитрее? всех проворней и смелее?"} 
 ]}, 
 {"name": "Выкуп невесты", "slug": "vikup_nevesti.html", "description": "Все о том, как продать и купить невесту:  весело и дорого!", "sub": [
 {"name": "Сценарии выкупа невесты", "slug": "vikup_scenarios.html", "description": "Главное в этом деле поверить жениха и его чувство юмора!"}, 
 {"name": "Конкурсы для выкупа невесты", "slug": "vikup_contests.html", "description": "Испытания жениха на прочность, стрессоустойчивость и знание семейного ландшафта."}, 
 {"name": "В помощь жениху", "slug": "finance_help.html", "description": "Мышцы здесь не помогут! Простые советы как достичь заветной цели с минимальными потерями."}, 
 {"name": "У нас товар, у вас купец", "slug": "vikup.html", "description": "Статьи об основах свадебного маркетинга."} 
 ]}, 
 {"name": "Советы гостям", "slug": "wedding_advice.html", "description": "Как  выбрать подарок, поздравить новобрачных и что произнести в торжественный момент? Станьте желанным гостем на любой свадьбе!", "sub": [
 {"name": "Как выбрать подарок", "slug": "wedding_gifts.html", "description": "Как не подарить шестую кофеварку и «не ударить в грязь  лицом»."}, 
 {"name": "Свадебные тосты", "slug": "wedding_toasts.html", "description": "В стихах или прозе, тёще или будущей маме, но главное – от всего сердца!"}, 
 {"name": "Поздравления с Днем Свадьбы", "slug": "wedding_congratulations.html", "description": "Пусть молодые не пожалеют о том, что пригласили на свадьбу именно Вас."}, 
 {"name": "Полезные советы", "slug": "svadebnie_soveti.html", "description": "Все о свадебном этикете  и правилах хорошего тона."} 
 ]}, 
 {"name": "Годовщины свадьбы", "slug": "wedding_anniversary.html", "description": "Все о том, чем отличается Ситцевая свадьба от Золотой и как отпраздновать Жемчужную свадьбу.", "sub": [
 {"name": "Сценарии юбилеев", "slug": "wedding_anniversary_scenarios.html", "description": "Возраст брака не помеха для любви! Пусть ваши юбилеи переполняет это чувство."}, 
 {"name": "Поздравления с годовщиной свадьбы", "slug": "wedding_anniversary_congratulations.html", "description": "Каждая годовщина свадьбы особенная, мы поможем вам подобрать правильные слова."}, 
 {"name": "Тосты для годовщины свадьбы", "slug": "wedding_anniversary_toasts.html", "description": "«Одна маленькая, но гордая птичка прожила в браке 100 лет! И Вам того желает»"}, 
 {"name": "Конкурсы для годовщины свадьбы", "slug": "wedding_anniversary_contests.html", "description": "Кто на свете всех хитрее? всех проворней и смелее?"}, 
 {"name": "Годовщины от 1 до 100 лет", "slug": "godovshini_svadbi.html", "description": " Здесь собрано все самое интересное о каждой годовщине супружеской жизни!"} 
 ]}, 
 {"name": "Советы специалистов", "slug": "soveti.html", "description": "Голова идет кругом от предсвадебной суеты? Воспользуйтесь рекомендациями опытных людей."}, 
 {"name": "Свадебные истории", "slug": "stories.html", "description": "Нужен источник вдохновения? Реальные истории из жизни знаменитостей и простых людей помогут разбудить ваше воображение! "}, 
 {"name": "Школа молодых жен", "slug": "young_wife.html", "description": "Психология, житейские советы и немного астрологии.  Все, что нужно знать  для создания счастливого брака."}, 
 {"name": "Блог", "slug": "blog.html", "description": "Все самое интересное про свадьбы из Интернет. Забавное видео, серьезные вопросы и многое другое. Давайте обсудим вместе!"} 
 ]