[
	{ 
		"name": "", 
		"sub": [""],
		"sub_extra": [""]
	},
	{ 
		"name": "Как провести свадьбу", 
		"sub": [
			"Сценарии свадеб",
			"Свадебные конкурсы",
			"Традиции и обряды",
			"Свадьбы народов мира",
			"Идеи для вашей свадьбы"
		],
		"sub_extra": []
	},
	{ 
		"name": "Девичник",
		"sub": [
			"Сценарии девичника",
			"Между нами девочками",
			"Конкурсы для девичника"
		],
		"sub_extra": []
	},
	{ 
		"name": "Выкуп невесты",
		"sub": [
			"Сценарии выкупа невесты",
			"Конкурсы для выкупа невесты",
			"В помощь жениху",
			"У нас товар, у вас купец"
		],
		"sub_extra": []
	},
	{ 	"name": "Советы гостям", 
		"sub": [
			 "Как выбрать подарок",
			 "Свадебные тосты",
			 "Поздравления с Днем Свадьбы",
			 "Полезные советы"
 		],
		"sub_extra": [] 
	},
	{ 
		"name": "Годовщины свадьбы", 
		"sub": [
			 "Сценарии юбилеев",
			 "Поздравления с годовщиной свадьбы",
			 "Тосты для годовщины свадьбы",
			 "Конкурсы для годовщины свадьбы",
			 "Годовщины от 1 до 100 лет"
 		],
		"sub_extra": [
			 "1 год - ситцевая свадьба",
			 "2 года - бумажная свадьба",
			 "3 года - кожанная свадьба",
			 "4 года - льняная свадьба",
			 "5 лет - деревянная свадьба",
			 "6 лет - чугунная свадьба",
			 "7 лет - медная свадьба",
			 "8 лет - жестяная свадьба",
			 "9 лет - фаянсовая свадьба",
			 "10 лет - оловянная свадьба",
			 "12,5 лет - никелевая свадьба",
			 "13 лет - шерстяная свадьба",
			 "14 лет - агатовая свадьба",
			 "15 лет - хрустальная свадьба",
			 "20 лет - фарфоровая свадьба",
			 "25 лет - серебрянная свадьба",
			 "30 лет - жемчужная свадьба",
			 "35 лет - коралловая свадьба",
			 "40 лет - рубиновая свадьба",
			 "45 лет - сапфировая свадьба",
			 "50 лет - золотая свадьба",
			 "60 лет - бриллиантовая свадьба",
			 "70 лет - благодатная свадьба"
		] 
	},
	{ 
		"name": "Советы специалистов", 
		"sub": [],
		"sub_extra": [
			 "Салоны красоты",
			 "Свадебные платья",
			 "Оформление свадеб",
			 "Ведущие свадеб",
			 "Приглашения на свадьбу",
			 "Cвадебный танец",
			 "Свадебные стилисты",
			 "Кольца",
			 "Фото / Видео",
			 "Организаторы свадеб",
			 "Рестораны",
			 "Торты",
			 "Мужские костюмы",
			 "Цветы",
			 "Лимузины",
			 "Фейерверк",
			 "Первая брачная ночь",
			 "Теплоходы",
			 "Лошади / Кареты",
			 "Музыкальное оформление",
			 "Эксклюзивные предложения",
			 "ЗАГСЫ"
		] 
	},
	{ 
		"name": "Свадебные истории", 
		"sub": [],
		"sub_extra": [
			 "Истории из жизни",
 			 "Свадьбы знаменитостей",
			 "Свадьбы животных"
		] 
	},
	{ 
		"name": "Школа молодых жен", 
		"sub": [],
		"sub_extra": [
			 "Семейная психология",
			 "Под счастливой звездой"
		] 
	},
	{ 
		"name": "Блог", 
		"sub": [],
		"sub_extra": [],
		"tags": [
			 "брачный контракт",
			 "видео",
			 "выкуп",
			 "годовщина свадьбы",
			 "девичник",
			 "жених",
			 "невеста",
			 "подготовка к свадьбе",
			 "психология",
			 "развлечение",
			 "родственники",
			 "романтика",
			 "свадебная церемония",
			 "свадебное платье",
			 "свадебный танец",
			 "свадьба",
			 "свадьба животных",
			 "свадьба знаменитостей",
			 "свекровь",
			 "семейная жизнь",
			 "семейные отношения",
			 "семья",
			 "сказка",
			 "совет специалиста",
			 "тамада",
			 "фото",
			 "экзотика",
			 "юмор"
		] 
	}
]
