[
	[
		"Авиамоторная",
		"Автозаводская",
		"Академическая",
		"Александровский сад",
		"Алексеевская",
		"Алма-Атинская",
		"Алтуфьево",
		"Андроновка",
		"Аннино",
		"Арбатская",
		"Аэропорт",
		"Бабушкинская",
		"Багратионовская",
		"Балтийская",
		"Баррикадная",
		"Бауманская",
		"Беговая",
		"Белокаменная",
		"Белорусская",
		"Беляево",
		"Бибирево",
		"Библиотека имени Ленина",
		"Битцевский Парк",
		"Борисово",
		"Боровицкая",
		"Ботанический сад",
		"Братиславская",
		"Бульвар Адмирала Ушакова",
		"Бульвар Дмитрия Донского",
		"Бульвар Рокоссовского",
		"Бунинская аллея",
		"Бутырская",
		"Варшавская",
		"ВДНХ",
		"Верхние Котлы",
		"Верхние Лихоборы",
		"Владыкино",
		"Водный стадион",
		"Войковская",
		"Волгоградский проспект",
		"Волжская",
		"Волоколамская",
		"Воробьёвы горы",
		"Выставочная",
		"Выхино",
		"Деловой Центр",
		"Динамо",
		"Дмитровская",
		"Добрынинская",
		"Домодедовская",
		"Достоевская",
		"Дубровка",
		"Жулебино",
		"ЗИЛ",
		"Зорге",
		"Зябликово",
		"Измайлово",
		"Измайловская",
		"Калужская",
		"Кантемировская",
		"Каховская",
		"Каширская",
		"Киевская",
		"Китай-город",
		"Кожуховская",
		"Коломенская",
		"Комсомольская",
		"Коньково",
		"Коптево",
		"Котельники",
		"Красногвардейская",
		"Краснопресненская",
		"Красносельская",
		"Красные ворота",
		"Крестьянская застава",
		"Кропоткинская",
		"Крылатское",
		"Крымская",
		"Кузьминки",
		"Кунцевская",
		"Курская",
		"Кутузовская",
		"Ленинский проспект",
		"Лермонтовский проспект",
		"Лесопарковая",
		"Лихоборы",
		"Локомотив",
		"Ломоносовский проспект",
		"Лубянка",
		"Лужники",
		"Люблино",
		"Марксистская",
		"Марьина Роща",
		"Марьино",
		"Маяковская",
		"Медведково",
		"Международная",
		"Менделеевская",
		"Минская",
		"Митино",
		"Молодёжная",
		"Мякинино",
		"Нагатинская",
		"Нагорная",
		"Нахимовский проспект",
		"Нижегородская",
		"Новогиреево",
		"Новокосино",
		"Новокузнецкая",
		"Новослободская",
		"Новохохловская",
		"Новоясеневская",
		"Новые Черёмушки",
		"Окружная",
		"Октябрьская",
		"Октябрьское Поле",
		"Орехово",
		"Отрадное",
		"Охотный ряд",
		"Павелецкая",
		"Панфиловская",
		"Парк Культуры",
		"Парк Победы",
		"Партизанская",
		"Первомайская",
		"Перово",
		"Петровско-Разумовская",
		"Печатники",
		"Пионерская",
		"Планерная",
		"Площадь Гагарина",
		"Площадь Ильича",
		"Площадь Революции",
		"Полежаевская",
		"Полянка",
		"Пражская",
		"Преображенская площадь",
		"Пролетарская",
		"Проспект Вернадского",
		"Проспект Мира",
		"Профсоюзная",
		"Пятницкое шоссе",
		"Раменки",
		"Речной вокзал",
		"Рижская",
		"Римская",
		"Ростокино",
		"Румянцево",
		"Рязанский проспект",
		"Савёловская",
		"Саларьево",
		"Свиблово",
		"Севастопольская",
		"Селигерская",
		"Семеновская",
		"Серпуховская",
		"Славянский бульвар",
		"Смоленская",
		"Сокол",
		"Соколиная Гора",
		"Сокольники",
		"Спартак",
		"Спортивная",
		"Сретенский бульвар",
		"Стрешнево",
		"Строгино",
		"Студенческая",
		"Сухаревская",
		"Сходненская",
		"Таганская",
		"Тверская",
		"Театральная",
		"Текстильщики",
		"Тёплый Стан",
		"Технопарк",
		"Тимирязевская",
		"Третьяковская",
		"Тропарёво",
		"Трубная",
		"Тульская",
		"Тургеневская",
		"Тушинская",
		"Угрешская",
		"Улица 1905 года",
		"Улица Академика Янгеля",
		"Улица Горчакова",
		"Улица Скобелевская",
		"Улица Старокачаловская",
		"Университет",
		"Филёвский парк",
		"Фили",
		"Фонвизинская",
		"Фрунзенская",
		"Ховрино",
		"Хорошёво",
		"Царицыно",
		"Цветной бульвар",
		"Черкизовская",
		"Чертановская",
		"Чеховская",
		"Чистые пруды",
		"Чкаловская",
		"Шаболовская",
		"Шелепиха",
		"Шипиловская",
		"Шоссе Энтузиастов",
		"Щёлковская",
		"Щукинская",
		"Электрозаводская",
		"Юго-Западная",
		"Южная",
		"Ясенево"
	],
	[
		"Автово",
		"Адмиралтейская",
		"Академическая",
		"Балтийская",
		"Бухарестская",
		"Василеостровская",
		"Владимирская",
		"Волковская",
		"Выборгская",
		"Горьковская",
		"Гостиный двор",
		"Гражданский проспект",
		"Девяткино",
		"Достоевская",
		"Елизаровская",
		"Звёздная",
		"Звенигородская",
		"Кировский Завод",
		"Комендантский проспект",
		"Крестовский остров",
		"Купчино",
		"Ладожская",
		"Ленинский проспект",
		"Лесная",
		"Лиговский проспект",
		"Ломоносовская",
		"Маяковская",
		"Международная",
		"Московская",
		"Московские ворота",
		"Нарвская",
		"Невский проспект",
		"Новочеркасская",
		"Обводный канал",
		"Обухово",
		"Озерки",
		"Парк Победы",
		"Парнас",
		"Петроградская",
		"Пионерская",
		"Площадь Александра Невского",
		"Площадь Восстания",
		"Площадь Ленина",
		"Площадь Мужества",
		"Политехническая",
		"Приморская",
		"Пролетарская",
		"Проспект Большевиков",
		"Проспект Ветеранов",
		"Проспект Просвещения",
		"Пушкинская",
		"Рыбацкое",
		"Садовая",
		"Сенная площадь",
		"Спасская",
		"Спортивная",
		"Старая Деревня",
		"Технологический институт",
		"Удельная",
		"Улица Дыбенко",
		"Фрунзенская",
		"Чёрная Речка",
		"Чернышевская",
		"Чкаловская",
		"Электросила"
	],
	[
		"Берёзовая роща",
		"Гагаринская",
		"Заельцовская",
		"Золотая Нива",
		"Красный проспект",
		"Маршала Покрышкина",
		"Октябрьская",
		"Площадь Гарина-Михайловского",
		"Площадь Ленина",
		"Площадь Маркса",
		"Речной вокзал",
		"Сибирская",
		"Студенческая"
	],
	[
		"Ботаническая",
		"Геологическая",
		"Динамо",
		"Машиностроителей",
		"Площадь 1905 года",
		"Проспект Космонавтов",
		"Уралмаш",
		"Уральская",
		"Чкаловская"
	],
	[
		"Автозаводская",
		"Буревестник",
		"Бурнаковская",
		"Горьковская",
		"Двигатель Революции",
		"Заречная",
		"Канавинская",
		"Кировская",
		"Комсомольская",
		"Ленинская",
		"Московская",
		"Парк Культуры",
		"Пролетарская",
		"Чкаловская"
	],
	[
		"Авиастроительная",
		"Аметьево",
		"Горки",
		"Козья Слобода",
		"Кремлевская",
		"Площадь Тукая",
		"Проспект Победы",
		"Северный вокзал",
		"Суконная Слобода",
		"Яшьлек"
	],
	[
		"Алабинская",
		"Безымянка",
		"Гагаринская",
		"Кировская",
		"Московская",
		"Победа",
		"Российская",
		"Советская",
		"Спортивная",
		"Юнгородок"
	],
	[
		"Площадь Ленина",
		"Комсомольская",
		"Пионерская",
		"Площадь Чекистов",
		"Профсоюзная",
		"ТЮЗ",
		"Ельшанка"
	],
	[
		"Академгородок",
		"Арсенальная",
		"Берестейская",
		"Бориспольская",
		"Васильковская",
		"Вокзальная",
		"Выдубичи",
		"Вырлица",
		"Выставочный центр",
		"Героев Днепра",
		"Гидропарк",
		"Голосеевская",
		"Дарница",
		"Дворец «Украина»",
		"Дворец спорта",
		"Демеевская",
		"Днепр",
		"Дорогожичи",
		"Дружбы народов",
		"Житомирская",
		"Золотые ворота",
		"Ипподром",
		"Кловская",
		"Контрактовая площадь",
		"Красный хутор",
		"Крещатик",
		"Левобережная",
		"Лесная",
		"Лукьяновская",
		"Лыбедская",
		"Минская",
		"Нивки",
		"Оболонь",
		"Олимпийская",
		"Осокорки",
		"Петровка",
		"Печерская",
		"Площадь Льва Толстого",
		"Площадь Независимости",
		"Позняки",
		"Политехнический институт",
		"Почтовая площадь",
		"Святошин",
		"Славутич",
		"Сырец",
		"Тараса Шевченко",
		"Театральная",
		"Теремки",
		"Университет",
		"Харьковская",
		"Черниговская",
		"Шулявская"
	]
]